{
    "defaultSeverity": "error",
    "extends": [
        "tslint:recommended"
    ],
    "jsRules": {},
    "rules": {
        "only-arrow-functions": false,
        "no-console": false,
        "no-unused-expression": false
    },
    "rulesDirectory": []
}